Data preparation
…
n_miss(db_proc)

[1] 19042

prop_miss(db_proc)*100

[1] 3.913541

miss_var_summary(db_proc)

# A tibble: 27 × 3
   variable         n_miss pct_miss
   <chr>             <int>    <num>
 1 ing_pc             4270    23.7 
 2 quintil            4270    23.7 
 3 quintil1           3137    17.4 
 4 perc_inequality    1702     9.44
 5 perc_sal_gerente   1522     8.45
 6 just_inequality    1191     6.61
 7 just_sal_gerente   1163     6.45
 8 perc_sal_obrero     591     3.28
 9 just_sal_obrero     435     2.41
10 ideo                261     1.45
# ℹ 17 more rows
…
